INDEX VERSION 1.126+C:\repositorio Lara\cursojava2021\.metadata\.plugins\org.eclipse.jdt.core
903678096.index
2250895275.index
1404394677.index
3788472001.index
4006967840.index
600874185.index
1474333884.index
612633869.index
3663837772.index
1061102278.index
2874649203.index
2541976689.index
2353212108.index
600492858.index
3410899378.index
3056272431.index
592628011.index
874962446.index
3434295941.index
